[
{ "order": 1, "name": "Stars", "feed": "www.nojoomplus.com/feed" },
{ "order": 2, "name": "Business", "feed": "news.google.com/news?topic=b&output=rss" },
{ "order": 3, "name": "Technology", "feed": "news.google.com/news?topic=tc&output=rss" },
{ "order": 4, "name": "Health", "feed": "news.google.com/news?topic=m&output=rss" },
{ "order": 5, "name": "Sports", "feed": "http://www.khaleejtimes.com/services/rss/sports/rss.xml" },
{ "order": 6, "name": "Entertainment", "feed": "news.google.com/news?topic=e&output=rss" },
{ "order": 7, "name": "Science", "feed": "news.google.com/news?topic=snc&output=rss" }
]